<svg width="26" height="22" viewBox="0 0 26 22" fill="none" xmlns="http://www.w3.org/2000/svg">
<path d="M17.9 7.3764L13 21.4764L25 7.3764H17.9Z" stroke="#0E0F0F" stroke-miterlimit="10" stroke-linecap="round" stroke-linejoin="round"/>
<path d="M6 1.17639L1 7.37639H8.1L6 1.17639Z" stroke="#0E0F0F" stroke-miterlimit="10" stroke-linecap="round" stroke-linejoin="round"/>
<path d="M17.9 7.37639H25L20 1.17639L17.9 7.37639Z" stroke="#0E0F0F" stroke-miterlimit="10" stroke-linecap="round" stroke-linejoin="round"/>
<path d="M17.9 7.37639L13 1.17639L8.10001 7.37639H17.9Z" stroke="#0E0F0F" stroke-miterlimit="10" stroke-linecap="round" stroke-linejoin="round"/>
<path d="M13 1.17639H6L8.1 7.37639L13 1.17639Z" stroke="#0E0F0F" stroke-miterlimit="10" stroke-linecap="round" stroke-linejoin="round"/>
<path d="M20 1.17639H13L17.9 7.37639L20 1.17639Z" stroke="#0E0F0F" stroke-miterlimit="10" stroke-linecap="round" stroke-linejoin="round"/>
<path d="M8.10001 7.3764L13 21.4764L17.9 7.3764H8.10001Z" stroke="#0E0F0F" stroke-miterlimit="10" stroke-linecap="round" stroke-linejoin="round"/>
<path d="M1 7.3764L13 21.4764L8.1 7.3764H1Z" stroke="#0E0F0F" stroke-miterlimit="10" stroke-linecap="round" stroke-linejoin="round"/>
</svg>
