<svg width="26" height="25" viewBox="0 0 26 25" fill="none" xmlns="http://www.w3.org/2000/svg">
<path d="M20 14.244L16.4 4.34399C16.2 3.94399 15.9 3.74399 15.5 3.74399H10.1C9.70001 3.74399 9.40001 4.04399 9.30001 4.44399L7.60001 12.344" stroke="#0E0F0F" stroke-miterlimit="10" stroke-linecap="round" stroke-linejoin="round"/>
<path d="M12.6 18.544C12.6 19.144 12.5 19.644 12.4 20.244H16.4V18.544H12.6Z" stroke="#0E0F0F" stroke-miterlimit="10" stroke-linecap="round" stroke-linejoin="round"/>
<path d="M16.3 14.444V18.544V20.244C16.3 20.444 16.5 20.644 16.7 20.644H17.6C17.8 19.044 19.2 17.744 20.9 17.744C22.6 17.744 24 19.044 24.2 20.644L24.9 18.344C25 17.944 25.1 17.544 25.1 17.044V15.144C25.1 14.944 24.9 14.744 24.7 14.744L16.8 13.944" stroke="#0E0F0F" stroke-miterlimit="10" stroke-linecap="round" stroke-linejoin="round"/>
<path d="M7.2 12.744C7.1 12.744 6.9 12.744 6.8 12.744C3.6 12.744 1 15.344 1 18.544C1 21.744 3.6 24.344 6.8 24.344C9.4 24.344 11.6 22.644 12.4 20.244C12.6 19.744 12.6 19.144 12.6 18.544C12.6 15.444 10.2 12.944 7.2 12.744Z" stroke="#0E0F0F" stroke-miterlimit="10" stroke-linecap="round" stroke-linejoin="round"/>
<path d="M6.8 21.044C5.4 21.044 4.3 19.944 4.3 18.544C4.3 17.144 5.4 16.044 6.8 16.044C6.9 16.044 7 16.044 7.1 16.044C8.4 16.144 9.3 17.244 9.3 18.544C9.3 19.944 8.2 21.044 6.8 21.044Z" stroke="#0E0F0F" stroke-miterlimit="10" stroke-linecap="round" stroke-linejoin="round"/>
<path d="M24.1 20.644C23.9 19.044 22.5 17.744 20.8 17.744C19.1 17.744 17.7 19.044 17.5 20.644C17.5 20.744 17.5 20.944 17.5 21.044C17.5 22.844 19 24.344 20.8 24.344C22.6 24.344 24.1 22.844 24.1 21.044C24.2 20.844 24.2 20.744 24.1 20.644Z" stroke="#0E0F0F" stroke-miterlimit="10" stroke-linecap="round" stroke-linejoin="round"/>
<path d="M21.9 20.844C21.8 20.344 21.4 19.944 20.8 19.944C20.2 19.944 19.8 20.344 19.7 20.844V20.944C19.7 21.544 20.2 22.044 20.8 22.044C21.4 22.044 21.9 21.544 21.9 20.944C21.9 20.944 21.9 20.944 21.9 20.844Z" stroke="#0E0F0F" stroke-miterlimit="10" stroke-linecap="round" stroke-linejoin="round"/>
<path d="M22.5 14.544V3.64399C22.5 2.94399 22.8 2.34399 23.4 1.94399L24.2 1.34399" stroke="#0E0F0F" stroke-miterlimit="10" stroke-linecap="round" stroke-linejoin="round"/>
<path d="M13 3.74399V13.144C13 13.644 13.4 14.044 13.9 14.044H16.8" stroke="#0E0F0F" stroke-miterlimit="10" stroke-linecap="round" stroke-linejoin="round"/>
<path d="M2.60001 14.544V11.644C2.60001 11.044 3.10001 10.644 3.60001 10.644H8.00001" stroke="#0E0F0F" stroke-miterlimit="10" stroke-linecap="round" stroke-linejoin="round"/>
</svg>
